\relax 
\citation{haq_survey_2021}
\citation{feng_scalable_2016}
\citation{ming_binsim_2017}
\citation{xu_neural_2017}
\citation{zuo_neural_2019}
\citation{ding_asm2vec_2019}
\citation{massarelli_safe_2019}
\citation{duan_deepbindiff_nodate}
\citation{xu_patch_2020}
\citation{haq_survey_2021}
\citation{cozzi_tangled_2020}
\citation{menguy_search-based_2021}
\citation{david_neural_2020}
\citation{jan_throwing_2020}
\citation{sun_hybrid_2020}
\citation{costin_automated_2016}
\citation{hernandez_toward_2019}
\citation{gibert_rise_2020}
\@writefile{toc}{\contentsline {section}{\numberline {1}Introduction}{2}{}\protected@file@percent }
\@writefile{toc}{\contentsline {section}{\numberline {2}Related Works}{2}{}\protected@file@percent }
\citation{haq_survey_2021}
\citation{menguy_search-based_2021}
\@writefile{toc}{\contentsline {subsection}{\numberline {2.1}My position and objectives}{3}{}\protected@file@percent }
\@writefile{toc}{\contentsline {section}{\numberline {3}Approach details}{3}{}\protected@file@percent }
\newlabel{approach_details}{{3}{3}}
\citation{radare2}
\citation{eh_frames}
\citation{andriesse_pba}
\@writefile{toc}{\contentsline {subsection}{\numberline {3.1}Binary loading}{4}{}\protected@file@percent }
\citation{nucleus}
\citation{nucleus}
\@writefile{toc}{\contentsline {subsection}{\numberline {3.2}Disassembly}{5}{}\protected@file@percent }
\@writefile{toc}{\contentsline {subsubsection}{\numberline {3.2.1}Recursive and static disassembly}{5}{}\protected@file@percent }
\@writefile{lof}{\contentsline {figure}{\numberline {1}{\ignorespaces Exemple de CFG reconstruit réduit}}{5}{}\protected@file@percent }
\newlabel{fig:CFG}{{1}{5}}
\@writefile{toc}{\contentsline {subsection}{\numberline {3.3}Function delimitation}{5}{}\protected@file@percent }
\@writefile{lof}{\contentsline {figure}{\numberline {2}{\ignorespaces Function delimitation algorithm - Nucleus}}{6}{}\protected@file@percent }
\newlabel{fig::nucleus}{{2}{6}}
\@writefile{lof}{\contentsline {figure}{\numberline {3}{\ignorespaces Colored CFG. One color per function. Entry point blocks are different. The starting number of each line is the number of the function it belongs to.}}{6}{}\protected@file@percent }
\newlabel{fig::colored_cfg}{{3}{6}}
\@writefile{toc}{\contentsline {subsection}{\numberline {3.4}Sites cutting}{6}{}\protected@file@percent }
\@writefile{toc}{\contentsline {subsection}{\numberline {3.5}Dataflow analysis}{6}{}\protected@file@percent }
\@writefile{lof}{\contentsline {figure}{\numberline {4}{\ignorespaces In orange: CFG of a function. Right of it: all the different size-3 Sites extracted from it. An oval node is a node from outside the considered graph.}}{7}{}\protected@file@percent }
\newlabel{fig::site_cutting}{{4}{7}}
\@writefile{toc}{\contentsline {subsubsection}{\numberline {3.5.1}Dataflow of a sequence of instruction}{7}{}\protected@file@percent }
\@writefile{toc}{\contentsline {subsubsection}{\numberline {3.5.2}Tainting rules}{7}{}\protected@file@percent }
\@writefile{lof}{\contentsline {figure}{\numberline {5}{\ignorespaces How to propagate the tainting of register through x86 instructions}}{8}{}\protected@file@percent }
\newlabel{fig::inst_dataflow}{{5}{8}}
\@writefile{toc}{\contentsline {subsubsection}{\numberline {3.5.3}Register classes}{8}{}\protected@file@percent }
\@writefile{toc}{\contentsline {subsubsection}{\numberline {3.5.4}DFT of a graph}{8}{}\protected@file@percent }
\@writefile{toc}{\contentsline {subsection}{\numberline {3.6}Binary comparison}{9}{}\protected@file@percent }
\newlabel{def::inclusion_score}{{3}{9}}
\@writefile{toc}{\contentsline {section}{\numberline {4}Evaluation}{9}{}\protected@file@percent }
\newlabel{resultats}{{4}{9}}
\@writefile{toc}{\contentsline {subsection}{\numberline {4.1}Dataset}{9}{}\protected@file@percent }
\citation{xu_neural_2017}
\@writefile{toc}{\contentsline {subsection}{\numberline {4.2}Version / Optimization performance test}{10}{}\protected@file@percent }
\newlabel{def::same_fun}{{4}{10}}
\@writefile{toc}{\contentsline {subsection}{\numberline {4.3}Performance evaluation}{10}{}\protected@file@percent }
\@writefile{toc}{\contentsline {subsection}{\numberline {4.4}Results}{10}{}\protected@file@percent }
\@writefile{toc}{\contentsline {section}{\numberline {5}Future work and limitations}{11}{}\protected@file@percent }
\newlabel{future_limitations}{{5}{11}}
\citation{haq_survey_2021}
\bibstyle{unsrt}
\bibdata{bibliographie/biblio.bib}
\bibcite{haq_survey_2021}{1}
\bibcite{feng_scalable_2016}{2}
\bibcite{ming_binsim_2017}{3}
\bibcite{xu_neural_2017}{4}
\bibcite{zuo_neural_2019}{5}
\bibcite{ding_asm2vec_2019}{6}
\bibcite{massarelli_safe_2019}{7}
\bibcite{duan_deepbindiff_nodate}{8}
\bibcite{xu_patch_2020}{9}
\bibcite{cozzi_tangled_2020}{10}
\bibcite{menguy_search-based_2021}{11}
\bibcite{david_neural_2020}{12}
\bibcite{jan_throwing_2020}{13}
\bibcite{sun_hybrid_2020}{14}
\bibcite{costin_automated_2016}{15}
\bibcite{hernandez_toward_2019}{16}
\bibcite{gibert_rise_2020}{17}
\@writefile{toc}{\contentsline {section}{Appendices}{14}{}\protected@file@percent }
\@writefile{lof}{\contentsline {figure}{\numberline {6}{\ignorespaces ROC curve of several binaries}}{15}{}\protected@file@percent }
\newlabel{fig::roc_big}{{6}{15}}
\@writefile{lof}{\contentsline {figure}{\numberline {7}{\ignorespaces ROC curve using backtracking for function comparison (slower but better performances).}}{16}{}\protected@file@percent }
\newlabel{fig::roc_backtracking}{{7}{16}}
\gdef \@abspage@last{16}
