# Fdb version 3
["bibtex technical_report_Gabriel_Sauger"] 1654523161 "technical_report_Gabriel_Sauger.aux" "technical_report_Gabriel_Sauger.bbl" "technical_report_Gabriel_Sauger" 1656306702
  "/usr/share/texmf-dist/bibtex/bst/base/unsrt.bst" 1650183167 18030 1376b4b231b50c66211e47e42eda2875 ""
  "bibliographie/biblio.bib" 1654518247 55642 92237525c3f79cab8fe7bedde6fb4e05 ""
  "technical_report_Gabriel_Sauger.aux" 1656306702 5507 a9d4ac7a4fdec75b7e74a2818ca9e161 "pdflatex"
  (generated)
  "technical_report_Gabriel_Sauger.bbl"
  "technical_report_Gabriel_Sauger.blg"
["pdflatex"] 1656306700 "/home/gab/TANGUE/rapport_article/technical_report_Gabriel_Sauger.tex" "technical_report_Gabriel_Sauger.pdf" "technical_report_Gabriel_Sauger" 1656306702
  "/home/gab/TANGUE/rapport_article/technical_report_Gabriel_Sauger.tex" 1654518887 2921 f32c402ab1340b17dd26125d02e5916e ""
  "/usr/share/texmf-dist/fonts/enc/dvips/cm-super/cm-super-ts1.enc" 1650183167 2900 1537cc8184ad1792082cd229ecc269f4 ""
  "/usr/share/texmf-dist/fonts/map/fontname/texfonts.map" 1650183167 3524 cb3e574dea2d1052e39280babc910dc8 ""
  "/usr/share/texmf-dist/fonts/tfm/jknappen/ec/tcrm1200.tfm" 1650183167 1536 74b7293ec3713bb7fdca8dd1bd1f469c ""
  "/usr/share/texmf-dist/fonts/tfm/public/amsfonts/cmextra/cmex7.tfm" 1650183167 1004 54797486969f23fa377b128694d548df ""
  "/usr/share/texmf-dist/fonts/tfm/public/amsfonts/cmextra/cmex8.tfm" 1650183167 988 bdf658c3bfc2d96d3c8b02cfc1c94c20 ""
  "/usr/share/texmf-dist/fonts/tfm/public/amsfonts/symbols/msam10.tfm" 1650183167 916 f87d7c45f9c908e672703b83b72241a3 ""
  "/usr/share/texmf-dist/fonts/tfm/public/amsfonts/symbols/msam7.tfm" 1650183167 928 2dc8d444221b7a635bb58038579b861a ""
  "/usr/share/texmf-dist/fonts/tfm/public/amsfonts/symbols/msbm10.tfm" 1650183167 908 2921f8a10601f252058503cc6570e581 ""
  "/usr/share/texmf-dist/fonts/tfm/public/amsfonts/symbols/msbm7.tfm" 1650183167 940 228d6584342e91276bf566bcf9716b83 ""
  "/usr/share/texmf-dist/fonts/tfm/public/cm/cmbx12.tfm" 1650183167 1324 c910af8c371558dc20f2d7822f66fe64 ""
  "/usr/share/texmf-dist/fonts/tfm/public/cm/cmbxti10.tfm" 1650183167 1532 9162035f4e7176612125649e348e2195 ""
  "/usr/share/texmf-dist/fonts/tfm/public/cm/cmex10.tfm" 1650183167 992 662f679a0b3d2d53c1b94050fdaa3f50 ""
  "/usr/share/texmf-dist/fonts/tfm/public/cm/cmmi12.tfm" 1650183167 1524 4414a8315f39513458b80dfc63bff03a ""
  "/usr/share/texmf-dist/fonts/tfm/public/cm/cmmi6.tfm" 1650183167 1512 f21f83efb36853c0b70002322c1ab3ad ""
  "/usr/share/texmf-dist/fonts/tfm/public/cm/cmmi8.tfm" 1650183167 1520 eccf95517727cb11801f4f1aee3a21b4 ""
  "/usr/share/texmf-dist/fonts/tfm/public/cm/cmr12.tfm" 1650183167 1288 655e228510b4c2a1abe905c368440826 ""
  "/usr/share/texmf-dist/fonts/tfm/public/cm/cmr17.tfm" 1650183167 1292 296a67155bdbfc32aa9c636f21e91433 ""
  "/usr/share/texmf-dist/fonts/tfm/public/cm/cmr6.tfm" 1650183167 1300 b62933e007d01cfd073f79b963c01526 ""
  "/usr/share/texmf-dist/fonts/tfm/public/cm/cmr8.tfm" 1650183167 1292 21c1c5bfeaebccffdb478fd231a0997d ""
  "/usr/share/texmf-dist/fonts/tfm/public/cm/cmsy10.tfm" 1650183167 1124 6c73e740cf17375f03eec0ee63599741 ""
  "/usr/share/texmf-dist/fonts/tfm/public/cm/cmsy6.tfm" 1650183167 1116 933a60c408fc0a863a92debe84b2d294 ""
  "/usr/share/texmf-dist/fonts/tfm/public/cm/cmsy8.tfm" 1650183167 1120 8b7d695260f3cff42e636090a8002094 ""
  "/usr/share/texmf-dist/fonts/tfm/public/cm/cmti12.tfm" 1650183167 1484 ed72f8f5cf654cda15ecc8e32bfcbee5 ""
  "/usr/share/texmf-dist/fonts/tfm/public/cm/cmtt10.tfm" 1650183167 768 1321e9409b4137d6fb428ac9dc956269 ""
  "/usr/share/texmf-dist/fonts/tfm/public/cm/cmtt12.tfm" 1650183167 772 9a936b7f5e2ff0557fce0f62822f0bbf ""
  "/usr/share/texmf-dist/fonts/type1/public/amsfonts/cm/cmbx12.pfb" 1650183167 32080 340ef9bf63678554ee606688e7b5339d ""
  "/usr/share/texmf-dist/fonts/type1/public/amsfonts/cm/cmbxti10.pfb" 1650183167 36554 b67dc2cfa451409e100b3fcf5f506509 ""
  "/usr/share/texmf-dist/fonts/type1/public/amsfonts/cm/cmex10.pfb" 1650183167 30251 6afa5cb1d0204815a708a080681d4674 ""
  "/usr/share/texmf-dist/fonts/type1/public/amsfonts/cm/cmmi12.pfb" 1650183167 36741 fa121aac0049305630cf160b86157ee4 ""
  "/usr/share/texmf-dist/fonts/type1/public/amsfonts/cm/cmmi8.pfb" 1650183167 35469 70d41d2b9ea31d5d813066df7c99281c ""
  "/usr/share/texmf-dist/fonts/type1/public/amsfonts/cm/cmr12.pfb" 1650183167 32722 d7379af29a190c3f453aba36302ff5a9 ""
  "/usr/share/texmf-dist/fonts/type1/public/amsfonts/cm/cmr17.pfb" 1650183167 32362 179c33bbf43f19adbb3825bb4e36e57a ""
  "/usr/share/texmf-dist/fonts/type1/public/amsfonts/cm/cmr6.pfb" 1650183167 32734 69e00a6b65cedb993666e42eedb3d48f ""
  "/usr/share/texmf-dist/fonts/type1/public/amsfonts/cm/cmr8.pfb" 1650183167 32726 0a1aea6fcd6468ee2cf64d891f5c43c8 ""
  "/usr/share/texmf-dist/fonts/type1/public/amsfonts/cm/cmsy10.pfb" 1650183167 32569 5e5ddc8df908dea60932f3c484a54c0d ""
  "/usr/share/texmf-dist/fonts/type1/public/amsfonts/cm/cmti12.pfb" 1650183167 36118 fad905eba93cff5bce1e185fe980a177 ""
  "/usr/share/texmf-dist/fonts/type1/public/amsfonts/cm/cmtt10.pfb" 1650183167 31099 c85edf1dd5b9e826d67c9c7293b6786c ""
  "/usr/share/texmf-dist/fonts/type1/public/amsfonts/cm/cmtt12.pfb" 1650183167 24252 1e4e051947e12dfb50fee0b7f4e26e3a ""
  "/usr/share/texmf-dist/fonts/type1/public/cm-super/sfrm1200.pfb" 1650183167 136101 f533469f523533d38317ab5729d00c8a ""
  "/usr/share/texmf-dist/tex/context/base/mkii/supp-pdf.mkii" 1650183167 71627 94eb9990bed73c364d7f53f960cc8c5b ""
  "/usr/share/texmf-dist/tex/generic/iftex/iftex.sty" 1650183167 7237 bdd120a32c8fdb4b433cf9ca2e7cd98a ""
  "/usr/share/texmf-dist/tex/generic/iftex/ifvtex.sty" 1650183167 1057 525c2192b5febbd8c1f662c9468335bb ""
  "/usr/share/texmf-dist/tex/generic/pgf/basiclayer/pgfcore.code.tex" 1650183167 992 855ff26741653ab54814101ca36e153c ""
  "/usr/share/texmf-dist/tex/generic/pgf/basiclayer/pgfcorearrows.code.tex" 1650183167 43820 1fef971b75380574ab35a0d37fd92608 ""
  "/usr/share/texmf-dist/tex/generic/pgf/basiclayer/pgfcoreexternal.code.tex" 1650183167 19324 f4e4c6403dd0f1605fd20ed22fa79dea ""
  "/usr/share/texmf-dist/tex/generic/pgf/basiclayer/pgfcoregraphicstate.code.tex" 1650183167 6038 ccb406740cc3f03bbfb58ad504fe8c27 ""
  "/usr/share/texmf-dist/tex/generic/pgf/basiclayer/pgfcoreimage.code.tex" 1650183167 6944 e12f8f7a7364ddf66f93ba30fb3a3742 ""
  "/usr/share/texmf-dist/tex/generic/pgf/basiclayer/pgfcorelayers.code.tex" 1650183167 4883 42daaf41e27c3735286e23e48d2d7af9 ""
  "/usr/share/texmf-dist/tex/generic/pgf/basiclayer/pgfcoreobjects.code.tex" 1650183167 2544 8c06d2a7f0f469616ac9e13db6d2f842 ""
  "/usr/share/texmf-dist/tex/generic/pgf/basiclayer/pgfcorepathconstruct.code.tex" 1650183167 44195 5e390c414de027626ca5e2df888fa68d ""
  "/usr/share/texmf-dist/tex/generic/pgf/basiclayer/pgfcorepathprocessing.code.tex" 1650183167 17311 2ef6b2e29e2fc6a2fc8d6d652176e257 ""
  "/usr/share/texmf-dist/tex/generic/pgf/basiclayer/pgfcorepathusage.code.tex" 1650183167 21302 788a79944eb22192a4929e46963a3067 ""
  "/usr/share/texmf-dist/tex/generic/pgf/basiclayer/pgfcorepatterns.code.tex" 1650183167 9690 01feb7cde25d4293ef36eef45123eb80 ""
  "/usr/share/texmf-dist/tex/generic/pgf/basiclayer/pgfcorepoints.code.tex" 1650183167 33335 dd1fa4814d4e51f18be97d88bf0da60c ""
  "/usr/share/texmf-dist/tex/generic/pgf/basiclayer/pgfcorequick.code.tex" 1650183167 2965 4c2b1f4e0826925746439038172e5d6f ""
  "/usr/share/texmf-dist/tex/generic/pgf/basiclayer/pgfcorerdf.code.tex" 1650183167 5196 2cc249e0ee7e03da5f5f6589257b1e5b ""
  "/usr/share/texmf-dist/tex/generic/pgf/basiclayer/pgfcorescopes.code.tex" 1650183167 20726 d4c8db1e2e53b72721d29916314a22ea ""
  "/usr/share/texmf-dist/tex/generic/pgf/basiclayer/pgfcoreshade.code.tex" 1650183167 35249 abd4adf948f960299a4b3d27c5dddf46 ""
  "/usr/share/texmf-dist/tex/generic/pgf/basiclayer/pgfcoretransformations.code.tex" 1650183167 21989 fdc867d05d228316de137a9fc5ec3bbe ""
  "/usr/share/texmf-dist/tex/generic/pgf/basiclayer/pgfcoretransparency.code.tex" 1650183167 8893 e851de2175338fdf7c17f3e091d94618 ""
  "/usr/share/texmf-dist/tex/generic/pgf/frontendlayer/tikz/libraries/tikzlibrarytopaths.code.tex" 1650183167 11518 738408f795261b70ce8dd47459171309 ""
  "/usr/share/texmf-dist/tex/generic/pgf/frontendlayer/tikz/tikz.code.tex" 1650183167 186007 6e7dfe0bd57520fd5f91641aa72dcac8 ""
  "/usr/share/texmf-dist/tex/generic/pgf/libraries/pgflibraryplothandlers.code.tex" 1650183167 32995 ac577023e12c0e4bd8aa420b2e852d1a ""
  "/usr/share/texmf-dist/tex/generic/pgf/math/pgfint.code.tex" 1650183167 3063 8c415c68a0f3394e45cfeca0b65f6ee6 ""
  "/usr/share/texmf-dist/tex/generic/pgf/math/pgfmath.code.tex" 1650183167 521 8e224a7af69b7fee4451d1bf76b46654 ""
  "/usr/share/texmf-dist/tex/generic/pgf/math/pgfmathcalc.code.tex" 1650183167 13391 84d29568c13bdce4133ab4a214711112 ""
  "/usr/share/texmf-dist/tex/generic/pgf/math/pgfmathfloat.code.tex" 1650183167 104935 184ed87524e76d4957860df4ce0cd1c3 ""
  "/usr/share/texmf-dist/tex/generic/pgf/math/pgfmathfunctions.base.code.tex" 1650183167 10165 cec5fa73d49da442e56efc2d605ef154 ""
  "/usr/share/texmf-dist/tex/generic/pgf/math/pgfmathfunctions.basic.code.tex" 1650183167 28178 41c17713108e0795aac6fef3d275fbca ""
  "/usr/share/texmf-dist/tex/generic/pgf/math/pgfmathfunctions.code.tex" 1650183167 9989 c55967bf45126ff9b061fa2ca0c4694f ""
  "/usr/share/texmf-dist/tex/generic/pgf/math/pgfmathfunctions.comparison.code.tex" 1650183167 3865 ac538ab80c5cf82b345016e474786549 ""
  "/usr/share/texmf-dist/tex/generic/pgf/math/pgfmathfunctions.integerarithmetics.code.tex" 1650183167 3177 27d85c44fbfe09ff3b2cf2879e3ea434 ""
  "/usr/share/texmf-dist/tex/generic/pgf/math/pgfmathfunctions.misc.code.tex" 1650183167 11024 0179538121bc2dba172013a3ef89519f ""
  "/usr/share/texmf-dist/tex/generic/pgf/math/pgfmathfunctions.random.code.tex" 1650183167 7854 4176998eeefd8745ac6d2d4bd9c98451 ""
  "/usr/share/texmf-dist/tex/generic/pgf/math/pgfmathfunctions.round.code.tex" 1650183167 3379 781797a101f647bab82741a99944a229 ""
  "/usr/share/texmf-dist/tex/generic/pgf/math/pgfmathfunctions.trigonometric.code.tex" 1650183167 92405 f515f31275db273f97b9d8f52e1b0736 ""
  "/usr/share/texmf-dist/tex/generic/pgf/math/pgfmathparser.code.tex" 1650183167 37376 11cd75aac3da1c1b152b2848f30adc14 ""
  "/usr/share/texmf-dist/tex/generic/pgf/math/pgfmathutil.code.tex" 1650183167 8471 c2883569d03f69e8e1cabfef4999cfd7 ""
  "/usr/share/texmf-dist/tex/generic/pgf/modules/pgfmodulematrix.code.tex" 1650183167 21201 08d231a2386e2b61d64641c50dc15abd ""
  "/usr/share/texmf-dist/tex/generic/pgf/modules/pgfmoduleplot.code.tex" 1650183167 16121 346f9013d34804439f7436ff6786cef7 ""
  "/usr/share/texmf-dist/tex/generic/pgf/modules/pgfmoduleshapes.code.tex" 1650183167 44784 cedaa399d15f95e68e22906e2cc09ef8 ""
  "/usr/share/texmf-dist/tex/generic/pgf/pgf.revision.tex" 1650183167 465 d68603f8b820ea4a08cce534944db581 ""
  "/usr/share/texmf-dist/tex/generic/pgf/systemlayer/pgf.cfg" 1650183167 926 2963ea0dcf6cc6c0a770b69ec46a477b ""
  "/usr/share/texmf-dist/tex/generic/pgf/systemlayer/pgfsys-common-pdf.def" 1650183167 5546 f3f24d7898386cb7daac70bdd2c4d6dc ""
  "/usr/share/texmf-dist/tex/generic/pgf/systemlayer/pgfsys-pdftex.def" 1650183167 12601 4786e597516eddd82097506db7cfa098 ""
  "/usr/share/texmf-dist/tex/generic/pgf/systemlayer/pgfsys.code.tex" 1650183167 61163 9b2eefc24e021323e0fc140e9826d016 ""
  "/usr/share/texmf-dist/tex/generic/pgf/systemlayer/pgfsysprotocol.code.tex" 1650183167 1896 b8e0ca0ac371d74c0ca05583f6313c91 ""
  "/usr/share/texmf-dist/tex/generic/pgf/systemlayer/pgfsyssoftpath.code.tex" 1650183167 7778 53c8b5623d80238f6a20aa1df1868e63 ""
  "/usr/share/texmf-dist/tex/generic/pgf/utilities/pgffor.code.tex" 1650183167 23997 a4bed72405fa644418bea7eac2887006 ""
  "/usr/share/texmf-dist/tex/generic/pgf/utilities/pgfkeys.code.tex" 1650183167 37060 797782f0eb50075c9bc952374d9a659a ""
  "/usr/share/texmf-dist/tex/generic/pgf/utilities/pgfkeysfiltered.code.tex" 1650183167 37431 9abe862035de1b29c7a677f3205e3d9f ""
  "/usr/share/texmf-dist/tex/generic/pgf/utilities/pgfrcs.code.tex" 1650183167 4494 af17fb7efeafe423710479858e42fa7e ""
  "/usr/share/texmf-dist/tex/generic/pgf/utilities/pgfutil-common-lists.tex" 1650183167 7251 fb18c67117e09c64de82267e12cd8aa4 ""
  "/usr/share/texmf-dist/tex/generic/pgf/utilities/pgfutil-common.tex" 1650183167 29274 e15c5b7157d21523bd9c9f1dfa146b8e ""
  "/usr/share/texmf-dist/tex/generic/pgf/utilities/pgfutil-latex.def" 1650183167 6825 a2b0ea5b539dda0625e99dd15785ab59 ""
  "/usr/share/texmf-dist/tex/latex/algorithms/algorithm.sty" 1650181575 3249 15763257e50278eef5db1952ccde229c ""
  "/usr/share/texmf-dist/tex/latex/algorithms/algorithmic.sty" 1650181575 9318 793e9d5a71e74e730d97f6bf5d7e2bca ""
  "/usr/share/texmf-dist/tex/latex/amscls/amsthm.sty" 1650183167 12594 0d51ac3a545aaaa555021326ff22a6cc ""
  "/usr/share/texmf-dist/tex/latex/amsfonts/amsfonts.sty" 1650183167 5949 3f3fd50a8cc94c3d4cbf4fc66cd3df1c ""
  "/usr/share/texmf-dist/tex/latex/amsfonts/amssymb.sty" 1650183167 13829 94730e64147574077f8ecfea9bb69af4 ""
  "/usr/share/texmf-dist/tex/latex/amsfonts/umsa.fd" 1650183167 961 6518c6525a34feb5e8250ffa91731cff ""
  "/usr/share/texmf-dist/tex/latex/amsfonts/umsb.fd" 1650183167 961 d02606146ba5601b5645f987c92e6193 ""
  "/usr/share/texmf-dist/tex/latex/amsmath/amsbsy.sty" 1650183167 2222 da905dc1db75412efd2d8f67739f0596 ""
  "/usr/share/texmf-dist/tex/latex/amsmath/amsgen.sty" 1650183167 4173 bc0410bcccdff806d6132d3c1ef35481 ""
  "/usr/share/texmf-dist/tex/latex/amsmath/amsmath.sty" 1650183167 87648 07fbb6e9169e00cb2a2f40b31b2dbf3c ""
  "/usr/share/texmf-dist/tex/latex/amsmath/amsopn.sty" 1650183167 4128 8eea906621b6639f7ba476a472036bbe ""
  "/usr/share/texmf-dist/tex/latex/amsmath/amstext.sty" 1650183167 2444 926f379cc60fcf0c6e3fee2223b4370d ""
  "/usr/share/texmf-dist/tex/latex/appendix/appendix.sty" 1650181202 8878 d9f65b39ca82f1d70030390eca653b1c ""
  "/usr/share/texmf-dist/tex/latex/base/article.cls" 1650183167 20144 8a7de377ae7a11ee924a7499611f5a9d ""
  "/usr/share/texmf-dist/tex/latex/base/ifthen.sty" 1650183167 5157 f308c7c04889e16c588e78aa42599fae ""
  "/usr/share/texmf-dist/tex/latex/base/inputenc.sty" 1650183167 5049 969aec05d5f39c43f8005910498fcf90 ""
  "/usr/share/texmf-dist/tex/latex/base/omscmr.fd" 1650183167 2469 ed49302eacbaebdd899d39dedcd25393 ""
  "/usr/share/texmf-dist/tex/latex/base/size12.clo" 1650183167 8449 bc7344e882df4d7e51c046514dee83e4 ""
  "/usr/share/texmf-dist/tex/latex/epstopdf-pkg/epstopdf-base.sty" 1650183167 13886 d1306dcf79a944f6988e688c1785f9ce ""
  "/usr/share/texmf-dist/tex/latex/eso-pic/eso-pic.sty" 1650183167 11772 8d0db0794e6aeb45348f60bbe3a3e093 ""
  "/usr/share/texmf-dist/tex/latex/fancyhdr/fancyhdr.sty" 1650183167 17086 7ed8cbc4d361ec87392817e0dd4f65ec ""
  "/usr/share/texmf-dist/tex/latex/float/float.sty" 1650183167 6749 16d2656a1984957e674b149555f1ea1d ""
  "/usr/share/texmf-dist/tex/latex/geometry/geometry.sty" 1650183167 41601 9cf6c5257b1bc7af01a58859749dd37a ""
  "/usr/share/texmf-dist/tex/latex/graphics-cfg/color.cfg" 1650183167 1213 620bba36b25224fa9b7e1ccb4ecb76fd ""
  "/usr/share/texmf-dist/tex/latex/graphics-cfg/graphics.cfg" 1650183167 1224 978390e9c2234eab29404bc21b268d1e ""
  "/usr/share/texmf-dist/tex/latex/graphics-def/pdftex.def" 1650183167 19103 48d29b6e2a64cb717117ef65f107b404 ""
  "/usr/share/texmf-dist/tex/latex/graphics/graphics.sty" 1650183167 18399 7e40f80366dffb22c0e7b70517db5cb4 ""
  "/usr/share/texmf-dist/tex/latex/graphics/graphicx.sty" 1650183167 7996 a8fb260d598dcaf305a7ae7b9c3e3229 ""
  "/usr/share/texmf-dist/tex/latex/graphics/keyval.sty" 1650183167 2671 4de6781a30211fe0ea4c672e4a2a8166 ""
  "/usr/share/texmf-dist/tex/latex/graphics/lscape.sty" 1650183167 1808 e22d55a4f66156801447813626bd4159 ""
  "/usr/share/texmf-dist/tex/latex/graphics/trig.sty" 1650183167 4009 187ea2dc3194cd5a76cd99a8d7a6c4d0 ""
  "/usr/share/texmf-dist/tex/latex/l3backend/l3backend-pdftex.def" 1650183167 31644 9b75b7ffdb38fbd7bb4502cd6b086a3c ""
  "/usr/share/texmf-dist/tex/latex/latexconfig/epstopdf-sys.cfg" 1650183167 678 4792914a8f45be57bb98413425e4c7af ""
  "/usr/share/texmf-dist/tex/latex/listings/listings.cfg" 1650183167 1830 e31effa752c61538383451ae21332364 ""
  "/usr/share/texmf-dist/tex/latex/listings/listings.sty" 1650183167 80964 64e57373f36316e4a09b517cbf1aba2e ""
  "/usr/share/texmf-dist/tex/latex/listings/lstlang1.sty" 1650183167 204271 bae5b2d457283e99567249c1990510be ""
  "/usr/share/texmf-dist/tex/latex/listings/lstmisc.sty" 1650183167 77022 ee25ce086f4a79d8cf73bac6f94c02a5 ""
  "/usr/share/texmf-dist/tex/latex/mathtools/mathtools.sty" 1650183167 59398 061078e853e620354ba0437103cbd0fe ""
  "/usr/share/texmf-dist/tex/latex/mathtools/mhsetup.sty" 1650183167 5582 a43dedf8e5ec418356f1e9dfe5d29fc3 ""
  "/usr/share/texmf-dist/tex/latex/pdflscape/pdflscape.sty" 1650183167 6575 25396d208d8f2b9395d06ef315d5886c ""
  "/usr/share/texmf-dist/tex/latex/pdfpages/pdfpages.sty" 1650183167 54508 3fd4fcb0ce463ba481db9f80ae95dad2 ""
  "/usr/share/texmf-dist/tex/latex/pdfpages/pppdftex.def" 1650183167 6591 1d9fd5a4927982c154f0f69ebbcad9c3 ""
  "/usr/share/texmf-dist/tex/latex/pgf/basiclayer/pgf.sty" 1650183167 1090 bae35ef70b3168089ef166db3e66f5b2 ""
  "/usr/share/texmf-dist/tex/latex/pgf/basiclayer/pgfcore.sty" 1650183167 410 615550c46f918fcbee37641b02a862d9 ""
  "/usr/share/texmf-dist/tex/latex/pgf/compatibility/pgfcomp-version-0-65.sty" 1650183167 21013 f4ff83d25bb56552493b030f27c075ae ""
  "/usr/share/texmf-dist/tex/latex/pgf/compatibility/pgfcomp-version-1-18.sty" 1650183167 989 c49c8ae06d96f8b15869da7428047b1e ""
  "/usr/share/texmf-dist/tex/latex/pgf/frontendlayer/tikz.sty" 1650183167 339 c2e180022e3afdb99c7d0ea5ce469b7d ""
  "/usr/share/texmf-dist/tex/latex/pgf/math/pgfmath.sty" 1650183167 306 c56a323ca5bf9242f54474ced10fca71 ""
  "/usr/share/texmf-dist/tex/latex/pgf/systemlayer/pgfsys.sty" 1650183167 443 8c872229db56122037e86bcda49e14f3 ""
  "/usr/share/texmf-dist/tex/latex/pgf/utilities/pgffor.sty" 1650183167 348 ee405e64380c11319f0e249fed57e6c5 ""
  "/usr/share/texmf-dist/tex/latex/pgf/utilities/pgfkeys.sty" 1650183167 274 5ae372b7df79135d240456a1c6f2cf9a ""
  "/usr/share/texmf-dist/tex/latex/pgf/utilities/pgfrcs.sty" 1650183167 325 f9f16d12354225b7dd52a3321f085955 ""
  "/usr/share/texmf-dist/tex/latex/tools/calc.sty" 1650183167 10214 00ce62e730d0cfe22b35e8f1c84949c7 ""
  "/usr/share/texmf-dist/tex/latex/xcolor/xcolor.sty" 1650183167 56029 3f7889dab51d620aa43177c391b7b190 ""
  "/usr/share/texmf-dist/web2c/texmf.cnf" 1650183167 39911 2da6c67557ec033436fe5418a70a8a61 ""
  "/var/lib/texmf/fonts/map/pdftex/updmap/pdftex.map" 1652788470 4278762 af3ac1370db81a450c1118eabf1fe718 ""
  "/var/lib/texmf/web2c/pdftex/pdflatex.fmt" 1652788459 2927658 0ace7106f671d6ed35b84a6194e5d797 ""
  "images//../images/NUCLEUS_fun_detection_algo.png" 1654272680 230087 f2bcf6409d6f10bf980c68cc2814a737 ""
  "images//../images/ROC_backtracking.png" 1654518194 47848 faf8ea4ddc5da1d2f413cf4bb237b4f3 ""
  "images//../images/ROC_big.png" 1654518165 41380 665b4c7c3a409a368252bf5360a1d1e8 ""
  "images//../images/example_CFG.png" 1654266638 82714 8b5a986f17127000f655a3f0083ae5a8 ""
  "images//../images/example_CFG_sites.png" 1654274924 141469 0e28396988a43d1c43df4158e8ccaa9c ""
  "images//../images/example_colored_CFG.png" 1654273287 93094 fdfdb25a0f8be47ee68e5f7885fe76d2 ""
  "sections/appendix.tex" 1654519016 66 1a13cc2db218496866321c21e3a9d0f0 ""
  "sections/approach_details.tex" 1654521964 15307 303886d5fa37065677a088cd2f195869 ""
  "sections/evaluation.tex" 1654519058 4303 a0d96af718c40f5f4263d58fdae548c3 ""
  "sections/future_works_limitations.tex" 1654521855 2577 c79bd6a4e0affa3d7363aa9cd8fd1fe9 ""
  "sections/introduction.tex" 1654519772 1666 469e3b58535ac33414812d11ae36554b ""
  "sections/related_works.tex" 1656306700 4126 c6e05cfd34942c2287c845a6676036c7 ""
  "technical_report_Gabriel_Sauger.aux" 1656306702 5507 a9d4ac7a4fdec75b7e74a2818ca9e161 "pdflatex"
  "technical_report_Gabriel_Sauger.bbl" 1654523161 5600 03deb49f7a7dfab02a9bd96190961964 "bibtex technical_report_Gabriel_Sauger"
  "technical_report_Gabriel_Sauger.tex" 1654518887 2921 f32c402ab1340b17dd26125d02e5916e ""
  "technical_report_Gabriel_Sauger.toc" 1656306702 1524 5e453099c9b6f26844460b8eae626851 "pdflatex"
  (generated)
  "technical_report_Gabriel_Sauger.aux"
  "technical_report_Gabriel_Sauger.log"
  "technical_report_Gabriel_Sauger.pdf"
  "technical_report_Gabriel_Sauger.toc"
