<?xml version="1.0" encoding="UTF-8" standalone="no"?>
<!-- Created with Inkscape (http://www.inkscape.org/) -->

<svg
   width="210mm"
   height="297mm"
   viewBox="0 0 210 297"
   version="1.1"
   id="svg5"
   inkscape:version="1.1.1 (3bf5ae0d25, 2021-09-20, custom)"
   sodipodi:docname="bipartite_dataflow_graph.svg"
   xmlns:inkscape="http://www.inkscape.org/namespaces/inkscape"
   xmlns:sodipodi="http://sodipodi.sourceforge.net/DTD/sodipodi-0.dtd"
   xmlns="http://www.w3.org/2000/svg"
   xmlns:svg="http://www.w3.org/2000/svg">
  <sodipodi:namedview
     id="namedview7"
     pagecolor="#ffffff"
     bordercolor="#666666"
     borderopacity="1.0"
     inkscape:pageshadow="2"
     inkscape:pageopacity="0.0"
     inkscape:pagecheckerboard="0"
     inkscape:document-units="mm"
     showgrid="false"
     inkscape:zoom="0.79118979"
     inkscape:cx="264.15912"
     inkscape:cy="356.42523"
     inkscape:window-width="1896"
     inkscape:window-height="1021"
     inkscape:window-x="12"
     inkscape:window-y="47"
     inkscape:window-maximized="1"
     inkscape:current-layer="g1578" />
  <defs
     id="defs2" />
  <g
     inkscape:label="Layer 1"
     inkscape:groupmode="layer"
     id="layer1">
    <rect
       style="fill:#e6e6e6;stroke:#002901;stroke-width:0.765;stroke-opacity:1"
       id="rect31"
       width="41.741985"
       height="22.503183"
       x="16.059469"
       y="40.721767" />
    <rect
       style="fill:#e6e6e6;stroke:#002901;stroke-width:0.765;stroke-opacity:1"
       id="rect1146"
       width="41.741985"
       height="22.503183"
       x="124.88555"
       y="40.721767" />
    <rect
       style="fill:#e6e6e6;stroke:#002901;stroke-width:0.765;stroke-opacity:1"
       id="rect1148"
       width="41.741985"
       height="22.503183"
       x="70.565712"
       y="40.721767" />
    <rect
       style="fill:#e6e6e6;stroke:#002901;stroke-width:0.765;stroke-opacity:1"
       id="rect1310"
       width="41.741985"
       height="22.503183"
       x="16.059469"
       y="104.34581" />
    <rect
       style="fill:#e6e6e6;stroke:#002901;stroke-width:0.765;stroke-opacity:1"
       id="rect1312"
       width="41.741985"
       height="22.503183"
       x="124.88555"
       y="104.34581" />
    <rect
       style="fill:#e6e6e6;stroke:#002901;stroke-width:0.765;stroke-opacity:1"
       id="rect1314"
       width="41.741985"
       height="22.503183"
       x="70.565712"
       y="104.34581" />
    <g
       id="g1572"
       transform="translate(-2.7737872,0.02355413)">
      <path
         style="fill:none;stroke:#000000;stroke-width:0.965;stroke-linecap:butt;stroke-linejoin:miter;stroke-miterlimit:4;stroke-dasharray:none;stroke-opacity:1"
         d="M 38.610121,63.611283 38.77887,102.97244"
         id="path1349" />
      <path
         style="fill:none;stroke:#000000;stroke-width:1.065;stroke-linecap:butt;stroke-linejoin:miter;stroke-miterlimit:4;stroke-dasharray:none;stroke-opacity:1"
         d="m 35.292974,99.701833 3.485896,3.270607 3.375053,-3.046298"
         id="path1351"
         sodipodi:nodetypes="ccc" />
    </g>
    <g
       id="g1578"
       transform="translate(4.0871618,0.24786313)">
      <path
         style="fill:none;stroke:#000000;stroke-width:0.952483;stroke-linecap:butt;stroke-linejoin:miter;stroke-miterlimit:4;stroke-dasharray:none;stroke-opacity:1"
         d="M 37.795062,63.154409 77.103377,102.3189"
         id="path1574"
         sodipodi:nodetypes="cc" />
      <path
         style="fill:none;stroke:#000000;stroke-width:1.065;stroke-linecap:butt;stroke-linejoin:miter;stroke-miterlimit:4;stroke-dasharray:none;stroke-opacity:1"
         d="m 72.326874,102.50155 4.776503,-0.18265 0.203544,-4.541979"
         id="path1576"
         sodipodi:nodetypes="ccc" />
      <text
         xml:space="preserve"
         style="font-style:normal;font-weight:normal;font-size:10.5833px;line-height:1.25;font-family:sans-serif;fill:#000000;fill-opacity:1;stroke:none;stroke-width:0.264583"
         x="21.079155"
         y="54.792664"
         id="text2880"><tspan
           sodipodi:role="line"
           id="tspan2878"
           style="stroke-width:0.264583"
           x="21.079155"
           y="54.792664">EAX</tspan></text>
      <text
         xml:space="preserve"
         style="font-style:normal;font-weight:normal;font-size:10.5833px;line-height:1.25;font-family:sans-serif;fill:#000000;fill-opacity:1;stroke:none;stroke-width:0.264583"
         x="76.638908"
         y="54.755238"
         id="text3522"><tspan
           sodipodi:role="line"
           id="tspan3520"
           style="stroke-width:0.264583"
           x="76.638908"
           y="54.755238">EBX</tspan></text>
      <text
         xml:space="preserve"
         style="font-style:normal;font-weight:normal;font-size:10.5833px;line-height:1.25;font-family:sans-serif;fill:#000000;fill-opacity:1;stroke:none;stroke-width:0.264583"
         x="131.02696"
         y="55.508144"
         id="text4934"><tspan
           sodipodi:role="line"
           id="tspan4932"
           style="stroke-width:0.264583"
           x="131.02696"
           y="55.508144">EBP</tspan></text>
      <text
         xml:space="preserve"
         style="font-style:normal;font-weight:normal;font-size:10.5833px;line-height:1.25;font-family:sans-serif;fill:#000000;fill-opacity:1;stroke:none;stroke-width:0.264583"
         x="21.079155"
         y="118.23424"
         id="text6428"><tspan
           sodipodi:role="line"
           id="tspan6426"
           style="stroke-width:0.264583"
           x="21.079155"
           y="118.23424">EAX</tspan></text>
      <text
         xml:space="preserve"
         style="font-style:normal;font-weight:normal;font-size:10.5833px;line-height:1.25;font-family:sans-serif;fill:#000000;fill-opacity:1;stroke:none;stroke-width:0.264583"
         x="76.638908"
         y="118.49055"
         id="text6432"><tspan
           sodipodi:role="line"
           id="tspan6430"
           style="stroke-width:0.264583"
           x="76.638908"
           y="118.49055">EBX</tspan></text>
      <text
         xml:space="preserve"
         style="font-style:normal;font-weight:normal;font-size:10.5833px;line-height:1.25;font-family:sans-serif;fill:#000000;fill-opacity:1;stroke:none;stroke-width:0.264583"
         x="131.02696"
         y="118.66873"
         id="text6436"><tspan
           sodipodi:role="line"
           id="tspan6434"
           style="stroke-width:0.264583"
           x="131.02696"
           y="118.66873">EBP</tspan></text>
    </g>
    <g
       id="g1584"
       transform="translate(53.03336,0.02355413)">
      <path
         style="fill:none;stroke:#000000;stroke-width:0.965;stroke-linecap:butt;stroke-linejoin:miter;stroke-miterlimit:4;stroke-dasharray:none;stroke-opacity:1"
         d="M 38.610121,63.611283 38.77887,102.97244"
         id="path1580" />
      <path
         style="fill:none;stroke:#000000;stroke-width:1.065;stroke-linecap:butt;stroke-linejoin:miter;stroke-miterlimit:4;stroke-dasharray:none;stroke-opacity:1"
         d="m 35.292974,99.701833 3.485896,3.270607 3.375053,-3.046298"
         id="path1582"
         sodipodi:nodetypes="ccc" />
    </g>
  </g>
</svg>
