\relax 
\providecommand\hyper@newdestlabel[2]{}
\providecommand\HyperFirstAtBeginDocument{\AtBeginDocument}
\HyperFirstAtBeginDocument{\ifx\hyper@anchor\@undefined
\global\let\oldcontentsline\contentsline
\gdef\contentsline#1#2#3#4{\oldcontentsline{#1}{#2}{#3}}
\global\let\oldnewlabel\newlabel
\gdef\newlabel#1#2{\newlabelxx{#1}#2}
\gdef\newlabelxx#1#2#3#4#5#6{\oldnewlabel{#1}{{#2}{#3}}}
\AtEndDocument{\ifx\hyper@anchor\@undefined
\let\contentsline\oldcontentsline
\let\newlabel\oldnewlabel
\fi}
\fi}
\global\let\hyper@last\relax 
\gdef\HyperFirstAtBeginDocument#1{#1}
\providecommand\HyField@AuxAddToFields[1]{}
\providecommand\HyField@AuxAddToCoFields[2]{}
\@writefile{nav}{\headcommand {\slideentry {0}{0}{1}{1/1}{}{0}}}
\@writefile{nav}{\headcommand {\beamer@framepages {1}{1}}}
\@writefile{nav}{\headcommand {\slideentry {0}{0}{2}{2/2}{}{0}}}
\@writefile{nav}{\headcommand {\beamer@framepages {2}{2}}}
\@writefile{nav}{\headcommand {\slideentry {0}{0}{3}{3/3}{}{0}}}
\@writefile{nav}{\headcommand {\beamer@framepages {3}{3}}}
\@writefile{nav}{\headcommand {\slideentry {0}{0}{4}{4/4}{}{0}}}
\@writefile{nav}{\headcommand {\beamer@framepages {4}{4}}}
\@writefile{nav}{\headcommand {\slideentry {0}{0}{5}{5/5}{}{0}}}
\@writefile{nav}{\headcommand {\beamer@framepages {5}{5}}}
\@writefile{nav}{\headcommand {\slideentry {0}{0}{6}{6/6}{}{0}}}
\@writefile{nav}{\headcommand {\beamer@framepages {6}{6}}}
\@writefile{toc}{\beamer@sectionintoc {1}{Introduction}{7}{0}{1}}
\@writefile{nav}{\headcommand {\beamer@sectionpages {1}{6}}}
\@writefile{nav}{\headcommand {\beamer@subsectionpages {1}{6}}}
\@writefile{nav}{\headcommand {\sectionentry {1}{Introduction}{7}{Introduction}{0}}}
\@writefile{nav}{\headcommand {\slideentry {1}{0}{1}{7/7}{}{0}}}
\@writefile{nav}{\headcommand {\beamer@framepages {7}{7}}}
\@writefile{nav}{\headcommand {\beamer@sectionpages {7}{7}}}
\@writefile{nav}{\headcommand {\beamer@subsectionpages {7}{7}}}
\@writefile{nav}{\headcommand {\sectionentry {2}{Related works}{8}{Related works}{0}}}
\@writefile{nav}{\headcommand {\slideentry {2}{0}{1}{8/8}{}{0}}}
\@writefile{nav}{\headcommand {\beamer@framepages {8}{8}}}
\@writefile{nav}{\headcommand {\slideentry {2}{0}{2}{9/9}{}{0}}}
\@writefile{nav}{\headcommand {\beamer@framepages {9}{9}}}
\@writefile{toc}{\beamer@sectionintoc {3}{Main algorithm - TANGUE}{10}{0}{2}}
\@writefile{nav}{\headcommand {\beamer@sectionpages {8}{9}}}
\@writefile{nav}{\headcommand {\beamer@subsectionpages {8}{9}}}
\@writefile{nav}{\headcommand {\sectionentry {3}{Main algorithm - TANGUE}{10}{Main algorithm - TANGUE}{0}}}
\@writefile{toc}{\beamer@subsectionintoc {3}{1}{Framework presentation}{10}{0}{2}}
\@writefile{nav}{\headcommand {\beamer@subsectionpages {10}{9}}}
\@writefile{nav}{\headcommand {\beamer@subsectionentry {0}{3}{1}{10}{Framework presentation}}}
\@writefile{nav}{\headcommand {\slideentry {3}{1}{1}{10/10}{Framework presentation}{0}}}
\@writefile{nav}{\headcommand {\beamer@framepages {10}{10}}}
\@writefile{toc}{\beamer@subsectionintoc {3}{2}{Binary loading - RADARE2}{11}{0}{2}}
\@writefile{nav}{\headcommand {\beamer@subsectionpages {10}{10}}}
\@writefile{nav}{\headcommand {\beamer@subsectionentry {0}{3}{2}{11}{Binary loading - RADARE2}}}
\@writefile{nav}{\headcommand {\slideentry {3}{2}{1}{11/11}{Binary loading - RADARE2}{0}}}
\@writefile{nav}{\headcommand {\beamer@framepages {11}{11}}}
\@writefile{toc}{\beamer@subsectionintoc {3}{3}{Disassembly - CAPSTONE}{12}{0}{2}}
\@writefile{nav}{\headcommand {\beamer@subsectionpages {11}{11}}}
\@writefile{nav}{\headcommand {\beamer@subsectionentry {0}{3}{3}{12}{Disassembly - CAPSTONE}}}
\@writefile{nav}{\headcommand {\slideentry {3}{3}{1}{12/12}{Disassembly - CAPSTONE}{0}}}
\@writefile{nav}{\headcommand {\beamer@framepages {12}{12}}}
\@writefile{toc}{\beamer@subsubsectionintoc {3}{3}{1}{Dissasembly algorithm - main function}{13}{0}{2}}
\@writefile{nav}{\headcommand {\beamer@subsubsectionentry {0}{3}{3}{1}{13}{Dissasembly algorithm - main function}}}
\@writefile{nav}{\headcommand {\slideentry {3}{3}{2}{13/13}{Disassembly - CAPSTONE}{0}}}
\@writefile{nav}{\headcommand {\beamer@framepages {13}{13}}}
\@writefile{nav}{\headcommand {\slideentry {3}{3}{3}{14/14}{Disassembly - CAPSTONE}{0}}}
\@writefile{nav}{\headcommand {\beamer@framepages {14}{14}}}
\@writefile{toc}{\beamer@sectionintoc {4}{Control Flow Graph (CFG)}{15}{0}{3}}
\@writefile{nav}{\headcommand {\beamer@sectionpages {10}{14}}}
\@writefile{nav}{\headcommand {\beamer@subsectionpages {12}{14}}}
\@writefile{nav}{\headcommand {\sectionentry {4}{Control Flow Graph (CFG)}{15}{Control Flow Graph (CFG)}{0}}}
\@writefile{toc}{\beamer@subsectionintoc {4}{1}{Definition}{15}{0}{3}}
\@writefile{nav}{\headcommand {\beamer@subsectionpages {15}{14}}}
\@writefile{nav}{\headcommand {\beamer@subsectionentry {0}{4}{1}{15}{Definition}}}
\newlabel{fig:CFG}{{1}{15}{Definition}{Doc-Start}{}}
\@writefile{snm}{\beamer@slide {fig:CFG}{15}}
\@writefile{nav}{\headcommand {\slideentry {4}{1}{1}{15/15}{Definition}{0}}}
\@writefile{nav}{\headcommand {\beamer@framepages {15}{15}}}
\@writefile{toc}{\beamer@subsectionintoc {4}{2}{Reduced CFG (rCFG)}{16}{0}{3}}
\@writefile{nav}{\headcommand {\beamer@subsectionpages {15}{15}}}
\@writefile{nav}{\headcommand {\beamer@subsectionentry {0}{4}{2}{16}{Reduced CFG (rCFG)}}}
\@writefile{nav}{\headcommand {\slideentry {4}{2}{1}{16/16}{Reduced CFG (rCFG)}{0}}}
\@writefile{nav}{\headcommand {\beamer@framepages {16}{16}}}
\@writefile{toc}{\beamer@sectionintoc {5}{Functions}{17}{0}{4}}
\@writefile{nav}{\headcommand {\beamer@sectionpages {15}{16}}}
\@writefile{nav}{\headcommand {\beamer@subsectionpages {16}{16}}}
\@writefile{nav}{\headcommand {\sectionentry {5}{Functions}{17}{Functions}{0}}}
\@writefile{toc}{\beamer@subsectionintoc {5}{1}{Definition}{17}{0}{4}}
\@writefile{nav}{\headcommand {\beamer@subsectionpages {17}{16}}}
\@writefile{nav}{\headcommand {\beamer@subsectionentry {0}{5}{1}{17}{Definition}}}
\@writefile{nav}{\headcommand {\slideentry {5}{1}{1}{17/17}{Definition}{0}}}
\@writefile{nav}{\headcommand {\beamer@framepages {17}{17}}}
\@writefile{toc}{\beamer@subsectionintoc {5}{2}{Function boundaries delimitation}{18}{0}{4}}
\@writefile{nav}{\headcommand {\beamer@subsectionpages {17}{17}}}
\@writefile{nav}{\headcommand {\beamer@subsectionentry {0}{5}{2}{18}{Function boundaries delimitation}}}
\newlabel{fig:nucleus}{{18}{18}{Function boundaries delimitation}{Doc-Start}{}}
\@writefile{snm}{\beamer@slide {fig:nucleus}{18}}
\@writefile{nav}{\headcommand {\slideentry {5}{2}{1}{18/18}{Function boundaries delimitation}{0}}}
\@writefile{nav}{\headcommand {\beamer@framepages {18}{18}}}
\@writefile{nav}{\headcommand {\slideentry {5}{2}{2}{19/19}{Function boundaries delimitation}{0}}}
\@writefile{nav}{\headcommand {\beamer@framepages {19}{19}}}
\@writefile{nav}{\headcommand {\slideentry {5}{2}{3}{20/20}{Function boundaries delimitation}{0}}}
\@writefile{nav}{\headcommand {\beamer@framepages {20}{20}}}
\newlabel{fig:colored_CFG}{{2}{21}{Function boundaries delimitation}{Doc-Start}{}}
\@writefile{snm}{\beamer@slide {fig:colored_CFG}{21}}
\@writefile{nav}{\headcommand {\slideentry {5}{2}{4}{21/21}{Function boundaries delimitation}{0}}}
\@writefile{nav}{\headcommand {\beamer@framepages {21}{21}}}
\@writefile{toc}{\beamer@sectionintoc {6}{Dataflow of a CFG}{22}{0}{5}}
\@writefile{nav}{\headcommand {\beamer@sectionpages {17}{21}}}
\@writefile{nav}{\headcommand {\beamer@subsectionpages {18}{21}}}
\@writefile{nav}{\headcommand {\sectionentry {6}{Dataflow of a CFG}{22}{Dataflow of a CFG}{0}}}
\@writefile{toc}{\beamer@subsectionintoc {6}{1}{Dataflow: registers taint propagation}{22}{0}{5}}
\@writefile{nav}{\headcommand {\beamer@subsectionpages {22}{21}}}
\@writefile{nav}{\headcommand {\beamer@subsectionentry {0}{6}{1}{22}{Dataflow: registers taint propagation}}}
\@writefile{nav}{\headcommand {\slideentry {6}{1}{1}{22/22}{Dataflow: registers taint propagation}{0}}}
\@writefile{nav}{\headcommand {\beamer@framepages {22}{22}}}
\@writefile{nav}{\headcommand {\slideentry {6}{1}{2}{23/23}{Dataflow: registers taint propagation}{0}}}
\@writefile{nav}{\headcommand {\beamer@framepages {23}{23}}}
\newlabel{dataflow_concatenation<1>}{{24}{24}{Dataflow: registers taint propagation}{Doc-Start}{}}
\@writefile{snm}{\beamer@slide {dataflow_concatenation<1>}{24}}
\newlabel{dataflow_concatenation}{{24}{24}{Dataflow: registers taint propagation}{Doc-Start}{}}
\@writefile{snm}{\beamer@slide {dataflow_concatenation}{24}}
\@writefile{nav}{\headcommand {\slideentry {6}{1}{3}{24/24}{Dataflow: registers taint propagation}{0}}}
\@writefile{nav}{\headcommand {\beamer@framepages {24}{24}}}
\@writefile{toc}{\beamer@subsubsectionintoc {6}{1}{1}{Registers categories}{25}{0}{5}}
\@writefile{nav}{\headcommand {\beamer@subsubsectionentry {0}{6}{1}{1}{25}{Registers categories}}}
\@writefile{nav}{\headcommand {\slideentry {6}{1}{4}{25/25}{Dataflow: registers taint propagation}{0}}}
\@writefile{nav}{\headcommand {\beamer@framepages {25}{25}}}
\@writefile{nav}{\headcommand {\slideentry {6}{1}{5}{26/26}{Dataflow: registers taint propagation}{0}}}
\@writefile{nav}{\headcommand {\beamer@framepages {26}{26}}}
\@writefile{toc}{\beamer@subsectionintoc {6}{2}{Definition - Dataflow tensor (DF Tensor)}{27}{0}{5}}
\@writefile{nav}{\headcommand {\beamer@subsectionpages {22}{26}}}
\@writefile{nav}{\headcommand {\beamer@subsectionentry {0}{6}{2}{27}{Definition - Dataflow tensor (DF Tensor)}}}
\@writefile{nav}{\headcommand {\slideentry {6}{2}{1}{27/27}{Definition - Dataflow tensor (DF Tensor)}{0}}}
\@writefile{nav}{\headcommand {\beamer@framepages {27}{27}}}
\@writefile{toc}{\beamer@subsectionintoc {6}{3}{DF Tensor computation procedure}{28}{0}{5}}
\@writefile{nav}{\headcommand {\beamer@subsectionpages {27}{27}}}
\@writefile{nav}{\headcommand {\beamer@subsectionentry {0}{6}{3}{28}{DF Tensor computation procedure}}}
\@writefile{nav}{\headcommand {\slideentry {6}{3}{1}{28/28}{DF Tensor computation procedure}{0}}}
\@writefile{nav}{\headcommand {\beamer@framepages {28}{28}}}
\@writefile{toc}{\beamer@subsubsectionintoc {6}{3}{1}{Strongly Connected Components Graph (SCCG)}{29}{0}{5}}
\@writefile{nav}{\headcommand {\beamer@subsubsectionentry {0}{6}{3}{1}{29}{Strongly Connected Components Graph (SCCG)}}}
\@writefile{nav}{\headcommand {\slideentry {6}{3}{2}{29/29}{DF Tensor computation procedure}{0}}}
\@writefile{nav}{\headcommand {\beamer@framepages {29}{29}}}
\@writefile{toc}{\beamer@subsubsectionintoc {6}{3}{2}{SCC dataflow computation algorithm}{30}{0}{5}}
\@writefile{nav}{\headcommand {\beamer@subsubsectionentry {0}{6}{3}{2}{30}{SCC dataflow computation algorithm}}}
\newlabel{graph_df_algo}{{30}{30}{SCC dataflow computation algorithm}{Doc-Start}{}}
\@writefile{snm}{\beamer@slide {graph_df_algo}{30}}
\@writefile{nav}{\headcommand {\slideentry {6}{3}{3}{30/30}{DF Tensor computation procedure}{0}}}
\@writefile{nav}{\headcommand {\beamer@framepages {30}{30}}}
\@writefile{toc}{\beamer@subsubsectionintoc {6}{3}{3}{SCCG dataflow tensor computation algorithm}{31}{0}{5}}
\@writefile{nav}{\headcommand {\beamer@subsubsectionentry {0}{6}{3}{3}{31}{SCCG dataflow tensor computation algorithm}}}
\@writefile{nav}{\headcommand {\slideentry {6}{3}{4}{31/31}{DF Tensor computation procedure}{0}}}
\@writefile{nav}{\headcommand {\beamer@framepages {31}{31}}}
\@writefile{nav}{\headcommand {\slideentry {6}{3}{5}{32/32}{DF Tensor computation procedure}{0}}}
\@writefile{nav}{\headcommand {\beamer@framepages {32}{32}}}
\@writefile{toc}{\beamer@sectionintoc {7}{SuperSites}{33}{0}{6}}
\@writefile{nav}{\headcommand {\beamer@sectionpages {22}{32}}}
\@writefile{nav}{\headcommand {\beamer@subsectionpages {28}{32}}}
\@writefile{nav}{\headcommand {\sectionentry {7}{SuperSites}{33}{SuperSites}{0}}}
\@writefile{toc}{\beamer@subsectionintoc {7}{1}{Sites}{33}{0}{6}}
\@writefile{nav}{\headcommand {\beamer@subsectionpages {33}{32}}}
\@writefile{nav}{\headcommand {\beamer@subsectionentry {0}{7}{1}{33}{Sites}}}
\@writefile{toc}{\beamer@subsubsectionintoc {7}{1}{1}{Definition}{33}{0}{6}}
\@writefile{nav}{\headcommand {\beamer@subsubsectionentry {0}{7}{1}{1}{33}{Definition}}}
\@writefile{nav}{\headcommand {\slideentry {7}{1}{1}{33/33}{Sites}{0}}}
\@writefile{nav}{\headcommand {\beamer@framepages {33}{33}}}
\@writefile{toc}{\beamer@subsubsectionintoc {7}{1}{2}{Site perimeter}{34}{0}{6}}
\@writefile{nav}{\headcommand {\beamer@subsubsectionentry {0}{7}{1}{2}{34}{Site perimeter}}}
\@writefile{nav}{\headcommand {\slideentry {7}{1}{2}{34/34}{Sites}{0}}}
\@writefile{nav}{\headcommand {\beamer@framepages {34}{34}}}
\newlabel{fig:CFG_sites}{{4}{35}{Site perimeter}{Doc-Start}{}}
\@writefile{snm}{\beamer@slide {fig:CFG_sites}{35}}
\@writefile{nav}{\headcommand {\slideentry {7}{1}{3}{35/35}{Sites}{0}}}
\@writefile{nav}{\headcommand {\beamer@framepages {35}{35}}}
\@writefile{toc}{\beamer@subsubsectionintoc {7}{1}{3}{Site cutting algorithm}{36}{0}{6}}
\@writefile{nav}{\headcommand {\beamer@subsubsectionentry {0}{7}{1}{3}{36}{Site cutting algorithm}}}
\@writefile{nav}{\headcommand {\slideentry {7}{1}{4}{36/36}{Sites}{0}}}
\@writefile{nav}{\headcommand {\beamer@framepages {36}{36}}}
\@writefile{nav}{\headcommand {\slideentry {7}{1}{5}{37/37}{Sites}{0}}}
\@writefile{nav}{\headcommand {\beamer@framepages {37}{37}}}
\@writefile{toc}{\beamer@subsectionintoc {7}{2}{Augmented Site: SuperSite}{38}{0}{6}}
\@writefile{nav}{\headcommand {\beamer@subsectionpages {33}{37}}}
\@writefile{nav}{\headcommand {\beamer@subsectionentry {0}{7}{2}{38}{Augmented Site: SuperSite}}}
\@writefile{nav}{\headcommand {\slideentry {7}{2}{1}{38/38}{Augmented Site: SuperSite}{0}}}
\@writefile{nav}{\headcommand {\beamer@framepages {38}{38}}}
\@writefile{toc}{\beamer@subsectionintoc {7}{3}{SuperSites isomorphisms}{39}{0}{6}}
\@writefile{nav}{\headcommand {\beamer@subsectionpages {38}{38}}}
\@writefile{nav}{\headcommand {\beamer@subsectionentry {0}{7}{3}{39}{SuperSites isomorphisms}}}
\@writefile{nav}{\headcommand {\slideentry {7}{3}{1}{39/39}{SuperSites isomorphisms}{0}}}
\@writefile{nav}{\headcommand {\beamer@framepages {39}{39}}}
\@writefile{toc}{\beamer@sectionintoc {8}{Applications}{40}{0}{7}}
\@writefile{nav}{\headcommand {\beamer@sectionpages {33}{39}}}
\@writefile{nav}{\headcommand {\beamer@subsectionpages {39}{39}}}
\@writefile{nav}{\headcommand {\sectionentry {8}{Applications}{40}{Applications}{0}}}
\@writefile{toc}{\beamer@subsectionintoc {8}{1}{What to do with a SuperSite ?}{40}{0}{7}}
\@writefile{nav}{\headcommand {\beamer@subsectionpages {40}{39}}}
\@writefile{nav}{\headcommand {\beamer@subsectionentry {0}{8}{1}{40}{What to do with a SuperSite ?}}}
\@writefile{nav}{\headcommand {\slideentry {8}{1}{1}{40/40}{What to do with a SuperSite ?}{0}}}
\@writefile{nav}{\headcommand {\beamer@framepages {40}{40}}}
\@writefile{toc}{\beamer@sectionintoc {9}{Performance evaluation}{41}{0}{8}}
\@writefile{nav}{\headcommand {\beamer@sectionpages {40}{40}}}
\@writefile{nav}{\headcommand {\beamer@subsectionpages {40}{40}}}
\@writefile{nav}{\headcommand {\sectionentry {9}{Performance evaluation}{41}{Performance evaluation}{0}}}
\@writefile{toc}{\beamer@subsectionintoc {9}{1}{Sigtool comparison}{41}{0}{8}}
\@writefile{nav}{\headcommand {\beamer@subsectionpages {41}{40}}}
\@writefile{nav}{\headcommand {\beamer@subsectionentry {0}{9}{1}{41}{Sigtool comparison}}}
\@writefile{nav}{\headcommand {\slideentry {9}{1}{1}{41/41}{Sigtool comparison}{0}}}
\@writefile{nav}{\headcommand {\beamer@framepages {41}{41}}}
\@writefile{toc}{\beamer@subsectionintoc {9}{2}{Version / Optimization matrix benchmark}{42}{0}{8}}
\@writefile{nav}{\headcommand {\beamer@subsectionpages {41}{41}}}
\@writefile{nav}{\headcommand {\beamer@subsectionentry {0}{9}{2}{42}{Version / Optimization matrix benchmark}}}
\@writefile{nav}{\headcommand {\slideentry {9}{2}{1}{42/42}{Version / Optimization matrix benchmark}{0}}}
\@writefile{nav}{\headcommand {\beamer@framepages {42}{42}}}
\@writefile{toc}{\beamer@subsubsectionintoc {9}{2}{1}{False positives evaluation}{43}{0}{8}}
\@writefile{nav}{\headcommand {\beamer@subsubsectionentry {0}{9}{2}{1}{43}{False positives evaluation}}}
\@writefile{nav}{\headcommand {\slideentry {9}{2}{2}{43/43}{Version / Optimization matrix benchmark}{0}}}
\@writefile{nav}{\headcommand {\beamer@framepages {43}{43}}}
\@writefile{toc}{\beamer@subsectionintoc {9}{3}{Function correlation benchmark}{44}{0}{8}}
\@writefile{nav}{\headcommand {\beamer@subsectionpages {42}{43}}}
\@writefile{nav}{\headcommand {\beamer@subsectionentry {0}{9}{3}{44}{Function correlation benchmark}}}
\@writefile{toc}{\beamer@subsubsectionintoc {9}{3}{1}{Protocol description}{44}{0}{8}}
\@writefile{nav}{\headcommand {\beamer@subsubsectionentry {0}{9}{3}{1}{44}{Protocol description}}}
\@writefile{nav}{\headcommand {\slideentry {9}{3}{1}{44/44}{Function correlation benchmark}{0}}}
\@writefile{nav}{\headcommand {\beamer@framepages {44}{44}}}
\@writefile{nav}{\headcommand {\slideentry {9}{3}{2}{45/45}{Function correlation benchmark}{0}}}
\@writefile{nav}{\headcommand {\beamer@framepages {45}{45}}}
\@writefile{nav}{\headcommand {\slideentry {9}{3}{3}{46/46}{Function correlation benchmark}{0}}}
\@writefile{nav}{\headcommand {\beamer@framepages {46}{46}}}
\@writefile{toc}{\beamer@sectionintoc {10}{Future work}{47}{0}{9}}
\@writefile{nav}{\headcommand {\beamer@sectionpages {41}{46}}}
\@writefile{nav}{\headcommand {\beamer@subsectionpages {44}{46}}}
\@writefile{nav}{\headcommand {\sectionentry {10}{Future work}{47}{Future work}{0}}}
\@writefile{toc}{\beamer@subsectionintoc {10}{1}{Obfuscations}{47}{0}{9}}
\@writefile{nav}{\headcommand {\beamer@subsectionpages {47}{46}}}
\@writefile{nav}{\headcommand {\beamer@subsectionentry {0}{10}{1}{47}{Obfuscations}}}
\@writefile{nav}{\headcommand {\slideentry {10}{1}{1}{47/47}{Obfuscations}{0}}}
\@writefile{nav}{\headcommand {\beamer@framepages {47}{47}}}
\@writefile{toc}{\beamer@sectionintoc {11}{Annex}{48}{0}{10}}
\@writefile{nav}{\headcommand {\beamer@sectionpages {47}{47}}}
\@writefile{nav}{\headcommand {\beamer@subsectionpages {47}{47}}}
\@writefile{nav}{\headcommand {\sectionentry {11}{Annex}{48}{Annex}{0}}}
\newlabel{bound_pb<1>}{{48}{48}{Annex}{Doc-Start}{}}
\@writefile{snm}{\beamer@slide {bound_pb<1>}{48}}
\newlabel{bound_pb}{{48}{48}{Annex}{Doc-Start}{}}
\@writefile{snm}{\beamer@slide {bound_pb}{48}}
\@writefile{nav}{\headcommand {\slideentry {11}{0}{1}{48/48}{}{0}}}
\@writefile{nav}{\headcommand {\beamer@framepages {48}{48}}}
\@writefile{nav}{\headcommand {\slideentry {11}{0}{2}{49/49}{}{0}}}
\@writefile{nav}{\headcommand {\beamer@framepages {49}{49}}}
\@writefile{toc}{\beamer@subsubsectionintoc {11}{0}{1}{Site encoding}{50}{0}{10}}
\@writefile{nav}{\headcommand {\beamer@subsubsectionentry {0}{11}{0}{1}{50}{Site encoding}}}
\newlabel{encodage<1>}{{50}{50}{Site encoding}{Doc-Start}{}}
\@writefile{snm}{\beamer@slide {encodage<1>}{50}}
\newlabel{encodage}{{50}{50}{Site encoding}{Doc-Start}{}}
\@writefile{snm}{\beamer@slide {encodage}{50}}
\@writefile{nav}{\headcommand {\slideentry {11}{0}{3}{50/50}{}{0}}}
\@writefile{nav}{\headcommand {\beamer@framepages {50}{50}}}
\newlabel{fig:Site_encodage}{{5}{51}{Site encoding}{Doc-Start}{}}
\@writefile{snm}{\beamer@slide {fig:Site_encodage}{51}}
\@writefile{nav}{\headcommand {\slideentry {11}{0}{4}{51/51}{}{0}}}
\@writefile{nav}{\headcommand {\beamer@framepages {51}{51}}}
\@writefile{nav}{\headcommand {\slideentry {11}{0}{5}{52/52}{}{0}}}
\@writefile{nav}{\headcommand {\beamer@framepages {52}{52}}}
\@writefile{toc}{\beamer@sectionintoc {12}{Bibliography}{53}{0}{11}}
\@writefile{nav}{\headcommand {\beamer@sectionpages {48}{52}}}
\@writefile{nav}{\headcommand {\beamer@subsectionpages {48}{52}}}
\@writefile{nav}{\headcommand {\sectionentry {12}{Bibliography}{53}{Bibliography}{0}}}
\@writefile{nav}{\headcommand {\slideentry {12}{0}{1}{53/53}{}{0}}}
\@writefile{nav}{\headcommand {\beamer@framepages {53}{53}}}
\newlabel{binsimsurvey}{{54}{54}{Bibliography}{Doc-Start}{}}
\@writefile{snm}{\beamer@slide {binsimsurvey}{54}}
\@writefile{nav}{\headcommand {\slideentry {12}{0}{2}{54/54}{}{0}}}
\@writefile{nav}{\headcommand {\beamer@framepages {54}{54}}}
\@writefile{nav}{\headcommand {\beamer@partpages {1}{54}}}
\@writefile{nav}{\headcommand {\beamer@subsectionpages {53}{54}}}
\@writefile{nav}{\headcommand {\beamer@sectionpages {53}{54}}}
\@writefile{nav}{\headcommand {\beamer@documentpages {54}}}
\@writefile{nav}{\headcommand {\gdef \inserttotalframenumber {54}}}
\gdef \@abspage@last{54}
